/home/zhiyuzhang/research/sparkSourceCode/spark-2.1.0/graphx/src/main/java/org/apache/spark/graphx/impl/EdgeActiveness.java
/home/zhiyuzhang/research/sparkSourceCode/spark-2.1.0/graphx/src/main/scala/org/apache/spark/graphx/util/package-info.java
/home/zhiyuzhang/research/sparkSourceCode/spark-2.1.0/graphx/src/main/scala/org/apache/spark/graphx/package-info.java
/home/zhiyuzhang/research/sparkSourceCode/spark-2.1.0/graphx/src/main/java/org/apache/spark/graphx/TripletFields.java
/home/zhiyuzhang/research/sparkSourceCode/spark-2.1.0/graphx/src/main/scala/org/apache/spark/graphx/lib/package-info.java
